-------------------------------------------------------------------------------
Test set: Domain.DomainModel.Project.ProjectTest
-------------------------------------------------------------------------------
Tests run: 2, Failures: 0, Errors: 0, Skipped: 0, Time elapsed: 0.015 s - in Domain.DomainModel.Project.ProjectTest
