Domain/DomainServices/Item/ItemState/TestingState.class
Domain/DomainModel/Project/Project.class
Domain/DomainServices/Pipeline/Test/Selenium.class
Domain/DomainModel/Observers/Observer.class
Domain/DomainServices/Item/ItemState/DoingState.class
Domain/DomainServices/Pipeline/Analysis/CodeSonar.class
Domain/DomainModel/Pipeline/Analysis/AnalysisFactory.class
Domain/DomainServices/Notification/SlackNotification.class
Domain/DomainServices/Pipeline/Build/DotNet/DotNet.class
Domain/DomainServices/Pipeline/Packages/NodeJS.class
Domain/DomainModel/Sprint/Sprint.class
Domain/DomainServices/Notification/SmsNotification.class
Domain/DomainModel/Pipeline/Analysis/Analysis.class
Domain/DomainServices/Pipeline/Deploy/Heroku.class
Domain/DomainServices/Pipeline/Analysis/SonarCube.class
Domain/DomainModel/Notification/NotificationFactory.class
Domain/DomainServices/Item/BacklogItem.class
DummyData/DummyData.class
Domain/DomainModel/Repository/Repository.class
Domain/DomainServices/Pipeline/Build/Jenkins.class
Domain/DomainServices/Item/Activity.class
Domain/DomainModel/Pipeline/Build/BuildFactory.class
Domain/DomainServices/Report/ConsoleReport.class
Domain/DomainServices/Pipeline/Deploy/Azure.class
Domain/DomainModel/Report/Report.class
Domain/DomainServices/Sprint/InitState.class
Domain/DomainModel/Observers/Observable.class
Domain/DomainModel/Notification/BodyType.class
Domain/DomainServices/Item/ItemState/ToDoState.class
Domain/DomainModel/Sprint/SprintState.class
Domain/DomainServices/Report/PDFReport.class
Domain/DomainModel/Pipeline/Pipeline.class
Domain/DomainModel/Item/ItemState.class
Domain/DomainServices/Sprint/ActiveState.class
Domain/DomainModel/Item/Item.class
Domain/DomainServices/Item/ItemState/DoneState.class
Domain/DomainServices/Sprint/FinishedState.class
Main.class
Domain/DomainServices/Item/ItemState/ToDoFromReady.class
Domain/DomainModel/Forum/Discussion.class
Domain/DomainServices/Pipeline/Build/Ant.class
Domain/DomainModel/Notification/Notification.class
Domain/DomainModel/User/User.class
Domain/DomainServices/Notification/EmailNotification.class
Domain/DomainServices/Report/Header.class
Domain/DomainServices/Item/ItemState/TestedState.class
Domain/DomainModel/Pipeline/Test/Test.class
Domain/DomainModel/Notification/NotificationType.class
Domain/DomainServices/Pipeline/Build/DotNetCore.class
Domain/DomainModel/Pipeline/Packages/Packages.class
Domain/DomainModel/Forum/Forum.class
Domain/DomainServices/Observers/NotificationObserver.class
Domain/DomainModel/Pipeline/Deploy/DeployFactory.class
Domain/DomainModel/Forum/Message.class
Domain/DomainServices/Pipeline/Build/DotNet/DotNetAdapter.class
Domain/DomainServices/Pipeline/Build/Maven.class
Domain/DomainServices/Item/ItemState/ReadyForTestingState.class
Domain/DomainModel/Pipeline/Test/TestFactory.class
Domain/DomainServices/Pipeline/Packages/Express.class
Domain/DomainModel/Pipeline/Build/Build.class
Domain/DomainModel/Pipeline/Deploy/Deploy.class
Domain/DomainServices/Report/Footer.class
Domain/DomainServices/Pipeline/Test/NUnit.class
